TrLo
CulmAz=-157.5828
CulmEl=76.3164
CulmI= 357
 CCW
     1      0.00     89.98    109.42
     2      0.00     89.92    109.42
     3      0.00     89.85    109.42
     4      0.00     89.80    109.42
     5      0.00     89.73    109.40
     6      0.00     89.67    109.40
     7      0.00     89.60    109.40
     8      0.00     89.53    109.40
     9      0.00     89.47    109.38
    10      0.00     89.40    109.38
    11      0.00     89.34    109.38
    12      0.00     89.27    109.37
    13      0.00     89.20    109.37
    14      0.00     89.13    109.37
    15      0.00     89.07    109.37
    16      0.00     89.00    109.35
    17      0.00     88.93    109.35
    18      0.00     88.87    109.35
    19      0.00     88.80    109.32
    20      0.00     88.73    109.32
    21      0.00     88.67    109.32
    22      0.00     88.61    109.32
    23      0.00     88.53    109.32
    24      0.00     88.45    109.32
    25      0.00     88.39    109.30
    26      0.00     88.32    109.30
    27      0.00     88.25    109.30
    28      0.00     88.18    109.28
    29      0.00     88.12    109.28
    30      0.00     88.03    109.28
    31      0.00     87.97    109.27
    32      0.00     87.90    109.27
    33      0.00     87.83    109.27
    34      0.00     87.75    109.25
    35      0.00     87.68    109.25
    36      0.00     87.62    109.25
    37      0.00     87.55    109.23
    38      0.00     87.47    109.23
    39      0.00     87.40    109.22
    40      0.00     87.33    109.22
    41      0.00     87.25    109.22
    42      0.00     87.18    109.20
    43      0.00     87.11    109.20
    44      0.00     87.03    109.18
    45      0.00     86.97    109.18
    46      0.00     86.89    109.18
    47      0.00     86.82    109.17
    48      0.00     86.73    109.17
    49      0.00     86.67    109.15
    50      0.00     86.58    109.15
    51      0.00     86.52    109.15
    52      0.00     86.43    109.13
    53      0.00     86.37    109.13
    54      0.00     86.28    109.12
    55      0.00     86.22    109.12
    56      0.00     86.13    109.10
    57      0.00     86.05    109.10
    58      0.00     85.98    109.08
    59      0.00     85.90    109.08
    60      0.00     85.83    109.08
    61      0.00     85.75    109.07
    62      0.00     85.67    109.07
    63      0.00     85.58    109.04
    64      0.00     85.52    109.04
    65      0.00     85.44    109.03
    66      0.00     85.35    109.03
    67      0.00     85.27    109.02
    68      0.00     85.20    109.02
    69      0.00     85.12    109.00
    70      0.00     85.03    109.00
    71      0.00     84.95    108.98
    72      0.00     84.88    108.98
    73      0.00     84.78    108.97
    74      0.00     84.70    108.97
    75      0.00     84.62    108.95
    76      0.00     84.54    108.93
    77      0.00     84.45    108.93
    78      0.00     84.38    108.92
    79      0.00     84.28    108.92
    80      0.00     84.20    108.90
    81      0.00     84.12    108.90
    82      0.00     84.03    108.87
    83      0.00     83.95    108.87
    84      0.00     83.87    108.87
    85      0.00     83.78    108.85
    86      0.00     83.71    108.85
    87      0.00     83.60    108.82
    88      0.00     83.52    108.82
    89      0.00     83.43    108.82
    90      0.00     83.35    108.80
    91      0.00     83.25    108.80
    92      0.00     83.17    108.78
    93      0.00     83.08    108.77
    94      0.00     82.99    108.77
    95      0.00     82.90    108.75
    96      0.00     82.82    108.73
    97      0.00     82.72    108.73
    98      0.00     82.63    108.71
    99      0.00     82.54    108.70
   100      0.00     82.45    108.70
   101      0.00     82.35    108.68
   102      0.00     82.27    108.67
   103      0.00     82.17    108.65
   104      0.00     82.07    108.65
   105      0.00     81.98    108.63
   106      0.00     81.88    108.62
   107      0.00     81.78    108.60
   108      0.00     81.71    108.60
   109      0.00     81.60    108.58
   110      0.00     81.50    108.57
   111      0.00     81.40    108.55
   112      0.00     81.32    108.55
   113      0.00     81.22    108.53
   114      0.00     81.12    108.52
   115      0.00     81.02    108.50
   116      0.00     80.92    108.48
   117      0.00     80.82    108.48
   118      0.00     80.72    108.47
   119      0.00     80.62    108.45
   120      0.00     80.52    108.43
   121      0.00     80.43    108.42
   122      0.00     80.31    108.40
   123      0.00     80.20    108.37
   124      0.00     80.10    108.37
   125      0.00     80.00    108.37
   126      0.00     79.90    108.35
   127      0.00     79.78    108.33
   128      0.00     79.68    108.32
   129      0.00     79.57    108.30
   130      0.00     79.48    108.28
   131      0.00     79.37    108.26
   132      0.00     79.26    108.25
   133      0.00     79.15    108.23
   134      0.00     79.03    108.22
   135      0.00     78.92    108.20
   136      0.00     78.82    108.18
   137      0.00     78.70    108.17
   138      0.00     78.58    108.15
   139      0.00     78.48    108.13
   140      0.00     78.37    108.12
   141      0.00     78.25    108.10
   142      0.00     78.13    108.08
   143      0.00     78.02    108.07
   144      0.00     77.90    108.03
   145      0.00     77.78    108.02
   146      0.00     77.67    108.00
   147      0.00     77.55    107.98
   148      0.00     77.43    107.97
   149      0.00     77.32    107.95
   150      0.00     77.18    107.93
   151      0.00     77.07    107.90
   152      0.00     76.95    107.87
   153      0.00     76.83    107.87
   154      0.00     76.70    107.85
   155      0.00     76.58    107.82
   156      0.00     76.45    107.80
   157      0.00     76.33    107.78
   158      0.00     76.20    107.76
   159      0.00     76.08    107.73
   160      0.00     75.95    107.72
   161      0.00     75.82    107.70
   162      0.00     75.68    107.67
   163      0.00     75.55    107.65
   164      0.00     75.42    107.62
   165      0.00     75.28    107.60
   166      0.00     75.15    107.58
   167      0.00     75.02    107.54
   168      0.00     74.88    107.53
   169      0.00     74.75    107.50
   170      0.00     74.62    107.48
   171      0.00     74.47    107.45
   172      0.00     74.33    107.43
   173      0.00     74.20    107.40
   174      0.00     74.05    107.37
   175      0.00     73.90    107.35
   176      0.00     73.77    107.32
   177      0.00     73.63    107.30
   178      0.00     73.47    107.27
   179      0.00     73.33    107.23
   180      0.00     73.19    107.22
   181      0.00     73.03    107.18
   182      0.00     72.88    107.15
   183      0.00     72.73    107.12
   184      0.00     72.58    107.09
   185      0.00     72.42    107.07
   186      0.00     72.27    107.03
   187      0.00     72.13    107.00
   188      0.00     71.96    106.97
   189      0.00     71.80    106.93
   190      0.00     71.63    106.90
   191      0.00     71.48    106.87
   192      0.00     71.32    106.83
   193      0.00     71.15    106.80
   194      0.00     70.98    106.77
   195      0.00     70.82    106.73
   196      0.00     70.65    106.70
   197      0.00     70.48    106.67
   198      0.00     70.32    106.63
   199      0.00     70.15    106.59
   200      0.00     69.97    106.57
   201      0.00     69.80    106.52
   202      0.00     69.62    106.48
   203      0.00     69.45    106.45
   204      0.00     69.27    106.40
   205      0.00     69.08    106.37
   206      0.00     68.90    106.33
   207      0.00     68.73    106.28
   208      0.00     68.53    106.25
   209      0.00     68.35    106.20
   210      0.00     68.15    106.17
   211      0.00     67.97    106.12
   212      0.00     67.78    106.07
   213      0.00     67.58    106.03
   214      0.00     67.38    105.98
   215      0.00     67.18    105.92
   216      0.00     66.98    105.90
   217      0.00     66.78    105.85
   218      0.00     66.58    105.80
   219      0.00     66.38    105.75
   220      0.00     66.18    105.70
   221      0.00     65.97    105.64
   222      0.00     65.78    105.60
   223      0.00     65.56    105.54
   224      0.00     65.33    105.50
   225      0.00     65.12    105.45
   226      0.00     64.90    105.38
   227      0.00     64.68    105.33
   228      0.00     64.45    105.28
   229      0.00     64.23    105.22
   230      0.00     64.00    105.17
   231      0.00     63.77    105.09
   232      0.00     63.55    105.05
   233      0.00     63.33    104.98
   234      0.00     63.07    104.92
   235      0.00     62.83    104.87
   236      0.00     62.60    104.80
   237      0.00     62.35    104.73
   238      0.00     62.10    104.67
   239      0.00     61.85    104.60
   240      0.00     61.60    104.53
   241      0.00     61.35    104.47
   242      0.00     61.10    104.37
   243      0.00     60.83    104.32
   244      0.00     60.58    104.25
   245      0.00     60.32    104.17
   246      0.00     60.05    104.10
   247      0.00     59.78    104.02
   248      0.00     59.50    103.92
   249      0.00     59.23    103.85
   250      0.00     58.95    103.77
   251      0.00     58.67    103.68
   252      0.00     58.38    103.60
   253      0.00     58.10    103.52
   254      0.00     57.81    103.42
   255      0.00     57.52    103.33
   256      0.00     57.22    103.25
   257      0.00     56.92    103.15
   258      0.00     56.62    103.05
   259      0.00     56.31    102.95
   260      0.00     56.00    102.85
   261      0.00     55.68    102.75
   262      0.00     55.37    102.65
   263      0.00     55.03    102.55
   264      0.00     54.72    102.43
   265      0.00     54.38    102.32
   266      0.00     54.05    102.22
   267      0.00     53.72    102.10
   268      0.00     53.38    101.98
   269      0.00     53.03    101.85
   270      0.00     52.70    101.73
   271      0.00     52.33    101.60
   272      0.00     51.98    101.47
   273      0.00     51.63    101.33
   274      0.00     51.27    101.19
   275      0.00     50.91    101.07
   276      0.00     50.53    100.92
   277      0.00     50.15    100.77
   278      0.00     49.77    100.62
   279      0.00     49.38    100.47
   280      0.00     49.01    100.32
   281      0.00     48.60    100.15
   282      0.00     48.22     99.98
   283      0.00     47.82     99.82
   284      0.00     47.40     99.63
   285      0.00     47.01     99.46
   286      0.00     46.58     99.28
   287      0.00     46.15     99.08
   288      0.00     45.73     98.90
   289      0.00     45.30     98.68
   290      0.00     44.87     98.48
   291      0.00     44.43     98.27
   292      0.00     43.98     98.05
   293      0.00     43.53     97.83
   294      0.00     43.08     97.60
   295      0.00     42.63     97.37
   296      0.00     42.17     97.12
   297      0.00     41.70     96.87
   298      0.00     41.23     96.60
   299      0.00     40.75     96.33
   300      0.00     40.27     96.05
   301      0.00     39.78     95.77
   302      0.00     39.30     95.46
   303      0.00     38.80     95.15
   304      0.00     38.30     94.83
   305      0.00     37.80     94.52
   306      0.00     37.28     94.17
   307      0.00     36.77     93.82
   308      0.00     36.26     93.45
   309      0.00     35.73     93.07
   310      0.00     35.20     92.67
   311      0.00     34.67     92.27
   312      0.00     34.14     91.83
   313      0.00     33.58     91.38
   314      0.00     33.05     90.93
   315      0.00     32.50     90.44
   316      0.00     31.95     89.94
   317      0.00     31.40     89.43
   318      0.00     30.83     88.88
   319      0.00     30.28     88.32
   320      0.00     29.72     87.71
   321      0.00     29.15     87.10
   322      0.00     28.58     86.45
   323      0.00     28.02     85.76
   324      0.00     27.46     85.04
   325      0.00     26.87     84.31
   326      0.00     26.30     83.52
   327      0.00     25.73     82.70
   328      0.00     25.15     81.83
   329      0.00     24.58     80.92
   330      0.00     24.02     79.97
   331      0.00     23.45     78.95
   332      0.00     22.89     77.88
   333      0.00     22.33     76.74
   334      0.00     21.77     75.57
   335      0.00     21.22     74.32
   336      0.00     20.68     72.98
   337      0.00     20.15     71.58
   338      0.00     19.62     70.08
   339      0.00     19.11     68.52
   340      0.00     18.60     66.85
   341      0.00     18.12     65.08
   342      0.00     17.63     63.22
   343      0.00     17.17     61.25
   344      0.00     16.73     59.17
   345      0.00     16.32     56.97
   346      0.00     15.92     54.65
   347      0.00     15.55     52.22
   348      0.00     15.20     49.65
   349      0.00     14.88     46.98
   350      0.00     14.60     44.20
   351      0.00     14.35     41.30
   352      0.00     14.15     38.31
   353      0.00     13.98     35.25
   354      0.00     13.83     32.10
   355      0.00     13.76     28.90
   356      0.00     13.71     25.67
   357      0.00     13.68     22.42
   358      0.00     13.72     19.18
   359      0.00     13.80     15.98
   360      0.00     13.92     12.82
   361      0.00     14.07      9.72
   362      0.00     14.27      6.70
   363      0.00     14.50      3.77
   364      0.00     14.77      0.95
   365      0.00     15.07     -1.75
   366      0.00     15.38     -4.35
   367      0.00     15.75     -6.82
   368      0.00     16.13     -9.19
   369      0.00     16.53    -11.42
   370      0.00     16.97    -13.54
   371      0.00     17.40    -15.53
   372      0.00     17.87    -17.43
   373      0.00     18.35    -19.23
   374      0.00     18.83    -20.93
   375      0.00     19.33    -22.53
   376      0.00     19.85    -24.06
   377      0.00     20.39    -25.48
   378      0.00     20.90    -26.83
   379      0.00     21.45    -28.10
   380      0.00     21.98    -29.32
   381      0.00     22.53    -30.47
   382      0.00     23.08    -31.55
   383      0.00     23.65    -32.59
   384      0.00     24.20    -33.55
   385      0.00     24.75    -34.48
   386      0.00     25.32    -35.37
   387      0.00     25.88    -36.21
   388      0.00     26.43    -37.00
   389      0.00     27.00    -37.76
   390      0.00     27.55    -38.49
   391      0.00     28.13    -39.17
   392      0.00     28.67    -39.83
   393      0.00     29.22    -40.45
   394      0.00     29.77    -41.05
   395      0.00     30.32    -41.63
   396      0.00     30.87    -42.18
   397      0.00     31.42    -42.72
   398      0.00     31.95    -43.22
   399      0.00     32.48    -43.72
   400      0.00     33.02    -44.18
   401      0.00     33.55    -44.62
   402      0.00     34.07    -45.06
   403      0.00     34.59    -45.47
   404      0.00     35.10    -45.87
   405      0.00     35.62    -46.25
   406      0.00     36.12    -46.63
   407      0.00     36.63    -46.98
   408      0.00     37.13    -47.33
   409      0.00     37.62    -47.67
   410      0.00     38.12    -47.98
   411      0.00     38.60    -48.30
   412      0.00     39.07    -48.60
   413      0.00     39.55    -48.88
   414      0.00     40.02    -49.17
   415      0.00     40.48    -49.46
   416      0.00     40.95    -49.73
   417      0.00     41.40    -49.97
   418      0.00     41.85    -50.22
   419      0.00     42.30    -50.45
   420      0.00     42.75    -50.69
   421      0.00     43.18    -50.92
   422      0.00     43.62    -51.13
   423      0.00     44.06    -51.35
   424      0.00     44.47    -51.55
   425      0.00     44.88    -51.77
   426      0.00     45.30    -51.96
   427      0.00     45.73    -52.15
   428      0.00     46.12    -52.33
   429      0.00     46.52    -52.52
   430      0.00     46.92    -52.68
   431      0.00     47.32    -52.87
   432      0.00     47.70    -53.03
   433      0.00     48.08    -53.20
   434      0.00     48.47    -53.36
   435      0.00     48.83    -53.50
   436      0.00     49.20    -53.65
   437      0.00     49.57    -53.80
   438      0.00     49.93    -53.95
   439      0.00     50.30    -54.08
   440      0.00     50.65    -54.23
   441      0.00     51.00    -54.37
   442      0.00     51.35    -54.50
   443      0.00     51.70    -54.62
   444      0.00     52.03    -54.75
   445      0.00     52.37    -54.87
   446      0.00     52.70    -54.98
   447      0.00     53.03    -55.10
   448      0.00     53.36    -55.22
   449      0.00     53.67    -55.33
   450      0.00     53.98    -55.43
   451      0.00     54.31    -55.55
   452      0.00     54.62    -55.65
   453      0.00     54.92    -55.75
   454      0.00     55.23    -55.85
   455      0.00     55.53    -55.95
   456      0.00     55.82    -56.05
   457      0.00     56.12    -56.15
   458      0.00     56.42    -56.23
   459      0.00     56.70    -56.33
   460      0.00     56.98    -56.42
   461      0.00     57.27    -56.53
   462      0.00     57.54    -56.60
   463      0.00     57.82    -56.68
   464      0.00     58.08    -56.77
   465      0.00     58.37    -56.85
   466      0.00     58.63    -56.92
   467      0.00     58.88    -57.00
   468      0.00     59.15    -57.09
   469      0.00     59.43    -57.15
   470      0.00     59.67    -57.23
   471      0.00     59.93    -57.30
   472      0.00     60.17    -57.37
   473      0.00     60.42    -57.43
   474      0.00     60.67    -57.52
   475      0.00     60.92    -57.59
   476      0.00     61.16    -57.65
   477      0.00     61.38    -57.72
   478      0.00     61.63    -57.77
   479      0.00     61.88    -57.83
   480      0.00     62.10    -57.90
   481      0.00     62.33    -57.97
   482      0.00     62.55    -58.02
   483      0.00     62.77    -58.08
   484      0.00     63.00    -58.13
   485      0.00     63.22    -58.20
   486      0.00     63.44    -58.26
   487      0.00     63.66    -58.30
   488      0.00     63.87    -58.37
   489      0.00     64.08    -58.42
   490      0.00     64.28    -58.47
   491      0.00     64.50    -58.52
   492      0.00     64.70    -58.57
   493      0.00     64.90    -58.62
   494      0.00     65.12    -58.67
   495      0.00     65.33    -58.72
   496      0.00     65.52    -58.77
   497      0.00     65.70    -58.82
   498      0.00     65.90    -58.87
   499      0.00     66.11    -58.90
   500      0.00     66.28    -58.95
   501      0.00     66.48    -59.00
   502      0.00     66.67    -59.03
   503      0.00     66.85    -59.09
   504      0.00     67.03    -59.13
   505      0.00     67.22    -59.17
   506      0.00     67.40    -59.22
   507      0.00     67.58    -59.25
   508      0.00     67.78    -59.30
   509      0.00     67.95    -59.33
   510      0.00     68.12    -59.37
   511      0.00     68.30    -59.43
   512      0.00     68.47    -59.45
   513      0.00     68.63    -59.48
   514      0.00     68.82    -59.52
   515      0.00     68.98    -59.57
   516      0.00     69.15    -59.60
   517      0.00     69.32    -59.63
   518      0.00     69.48    -59.67
   519      0.00     69.63    -59.71
   520      0.00     69.80    -59.73
   521      0.00     69.97    -59.77
   522      0.00     70.12    -59.80
   523      0.00     70.28    -59.83
   524      0.00     70.43    -59.88
   525      0.00     70.60    -59.90
   526      0.00     70.75    -59.93
   527      0.00     70.90    -59.97
   528      0.00     71.05    -60.00
   529      0.00     71.20    -60.02
   530      0.00     71.35    -60.05
   531      0.00     71.51    -60.08
   532      0.00     71.65    -60.12
   533      0.00     71.80    -60.13
   534      0.00     71.96    -60.17
   535      0.00     72.08    -60.20
   536      0.00     72.24    -60.23
   537      0.00     72.37    -60.26
   538      0.00     72.52    -60.28
   539      0.00     72.65    -60.30
   540      0.00     72.80    -60.33
   541      0.00     72.93    -60.38
   542      0.00     73.07    -60.38
   543      0.00     73.20    -60.42
   544      0.00     73.35    -60.43
   545      0.00     73.48    -60.47
   546      0.00     73.63    -60.49
   547      0.00     73.75    -60.52
   548      0.00     73.88    -60.53
   549      0.00     74.00    -60.57
   550      0.00     74.13    -60.58
   551      0.00     74.27    -60.60
   552      0.00     74.40    -60.63
   553      0.00     74.52    -60.65
   554      0.00     74.65    -60.67
   555      0.00     74.78    -60.71
   556      0.00     74.91    -60.72
   557      0.00     75.02    -60.73
   558      0.00     75.15    -60.77
   559      0.00     75.27    -60.78
   560      0.00     75.40    -60.80
   561      0.00     75.52    -60.82
   562      0.00     75.64    -60.85
   563      0.00     75.75    -60.88
   564      0.00     75.87    -60.88
   565      0.00     75.98    -60.90
   566      0.00     76.12    -60.92
   567      0.00     76.23    -60.95
   568      0.00     76.33    -60.98
   569      0.00     76.45    -60.99
   570      0.00     76.58    -61.00
   571      0.00     76.69    -61.02
   572      0.00     76.81    -61.03
   573      0.00     76.92    -61.05
   574      0.00     77.03    -61.07
   575      0.00     77.14    -61.08
   576      0.00     77.25    -61.10
   577      0.00     77.36    -61.13
   578      0.00     77.47    -61.16
   579      0.00     77.57    -61.17
   580      0.00     77.68    -61.18
   581      0.00     77.78    -61.21
   582      0.00     77.90    -61.22
   583      0.00     78.00    -61.23
   584      0.00     78.10    -61.25
   585      0.00     78.22    -61.25
   586      0.00     78.32    -61.27
   587      0.00     78.42    -61.28
   588      0.00     78.53    -61.30
   589      0.00     78.63    -61.32
   590      0.00     78.73    -61.33
   591      0.00     78.83    -61.35
   592      0.00     78.93    -61.37
   593      0.00     79.03    -61.38
   594      0.00     79.14    -61.40
   595      0.00     79.23    -61.43
   596      0.00     79.33    -61.43
   597      0.00     79.43    -61.43
   598      0.00     79.53    -61.45
   599      0.00     79.63    -61.47
   600      0.00     79.73    -61.48
   601      0.00     79.82    -61.48
   602      0.00     79.92    -61.50
   603      0.00     80.02    -61.52
   604      0.00     80.12    -61.53
   605      0.00     80.20    -61.55
   606      0.00     80.31    -61.55
   607      0.00     80.40    -61.57
   608      0.00     80.48    -61.58
   609      0.00     80.58    -61.60
   610      0.00     80.67    -61.60
   611      0.00     80.77    -61.62
   612      0.00     80.85    -61.63
   613      0.00     80.95    -61.66
   614      0.00     81.04    -61.66
   615      0.00     81.13    -61.67
   616      0.00     81.22    -61.68
   617      0.00     81.30    -61.68
   618      0.00     81.40    -61.70
   619      0.00     81.48    -61.72
   620      0.00     81.57    -61.72
   621      0.00     81.67    -61.73
   622      0.00     81.75    -61.75
   623      0.00     81.83    -61.75
   624      0.00     81.93    -61.77
   625      0.00     82.02    -61.78
   626      0.00     82.10    -61.78
   627      0.00     82.18    -61.80
   628      0.00     82.27    -61.82
   629      0.00     82.35    -61.82
   630      0.00     82.43    -61.83
   631      0.00     82.52    -61.83
   632      0.00     82.60    -61.85
   633      0.00     82.68    -61.88
   634      0.00     82.77    -61.88
   635      0.00     82.85    -61.88
   636      0.00     82.93    -61.88
   637      0.00     83.02    -61.90
   638      0.00     83.10    -61.90
   639      0.00     83.18    -61.92
   640      0.00     83.27    -61.94
   641      0.00     83.35    -61.94
   642      0.00     83.43    -61.95
   643      0.00     83.50    -61.95
   644      0.00     83.58    -61.97
   645      0.00     83.67    -61.97
   646      0.00     83.75    -61.98
   647      0.00     83.82    -61.98
   648      0.00     83.90    -62.00
   649      0.00     83.98    -62.00
   650      0.00     84.07    -62.02
   651      0.00     84.13    -62.02
   652      0.00     84.22    -62.04
   653      0.00     84.28    -62.04
   654      0.00     84.38    -62.05
   655      0.00     84.45    -62.05
   656      0.00     84.52    -62.07
   657      0.00     84.60    -62.07
   658      0.00     84.67    -62.08
   659      0.00     84.75    -62.08
   660      0.00     84.83    -62.10
   661      0.00     84.90    -62.10
   662      0.00     84.97    -62.10
   663      0.00     85.05    -62.12
   664      0.00     85.12    -62.12
   665      0.00     85.20    -62.13
   666      0.00     85.27    -62.13
   667      0.00     85.35    -62.16
   668      0.00     85.42    -62.16
   669      0.00     85.48    -62.16
   670      0.00     85.57    -62.17
   671      0.00     85.63    -62.17
   672      0.00     85.71    -62.18
   673      0.00     85.78    -62.18
   674      0.00     85.85    -62.20
   675      0.00     85.92    -62.20
   676      0.00     86.00    -62.20
   677      0.00     86.07    -62.22
   678      0.00     86.13    -62.22
   679      0.00     86.20    -62.22
   680      0.00     86.27    -62.23
   681      0.00     86.35    -62.23
   682      0.00     86.42    -62.25
   683      0.00     86.48    -62.25
   684      0.00     86.55    -62.25
   685      0.00     86.62    -62.27
   686      0.00     86.70    -62.27
   687      0.00     86.77    -62.27
   688      0.00     86.83    -62.28
   689      0.00     86.90    -62.28
   690      0.00     86.97    -62.28
   691      0.00     87.03    -62.30
   692      0.00     87.11    -62.30
   693      0.00     87.17    -62.30
   694      0.00     87.23    -62.33
   695      0.00     87.30    -62.33
   696      0.00     87.37    -62.33
   697      0.00     87.44    -62.33
   698      0.00     87.50    -62.33
   699      0.00     87.57    -62.33
   700      0.00     87.63    -62.35
   701      0.00     87.70    -62.35
   702      0.00     87.78    -62.35
   703      0.00     87.83    -62.38
   704      0.00     87.90    -62.38
   705      0.00     87.97    -62.38
   706      0.00     88.03    -62.38
   707      0.00     88.10    -62.38
   708      0.00     88.16    -62.38
   709      0.00     88.22    -62.38
   710      0.00     88.28    -62.40
   711      0.00     88.35    -62.40
   712      0.00     88.42    -62.40
   713      0.00     88.48    -62.42
   714      0.00     88.53    -62.42
   715      0.00     88.61    -62.42
   716      0.00     88.67    -62.42
   717      0.00     88.73    -62.43
   718      0.00     88.80    -62.43
   719      0.00     88.85    -62.43
   720      0.00     88.92    -62.43
   721      0.00     88.98    -62.45
   722      0.00     89.06    -62.45
   723      0.00     89.11    -62.45
   724      0.00     89.17    -62.45
   725      0.00     89.23    -62.47
   726      0.00     89.28    -62.47
   727      0.00     89.35    -62.47
   728      0.00     89.42    -62.47
   729      0.00     89.47    -62.49
   730      0.00     89.53    -62.49
   731      0.00     89.60    -62.49
   732      0.00     89.65    -62.49
   733      0.00     89.72    -62.50
   734      0.00     89.78    -62.50
   735      0.00     89.83    -62.50
